%YAML 1.1
%TAG !u! tag:unity3d.com,2011:
--- !u!21 &2100000
Material:
  serializedVersion: 6
  m_ObjectHideFlags: 0
  m_PrefabParentObject: {fileID: 0}
  m_PrefabInternal: {fileID: 0}
  m_Name: mia_w1100
  m_Shader: {fileID: 4800000, guid: cd2daeeb3a92cd14489709ac662cf135, type: 3}
  m_ShaderKeywords: OUTLINES TCP2_OUTLINE_CONST_SIZE TCP2_RAMPTEXT TCP2_RIM TCP2_SPEC
  m_LightmapFlags: 4
  m_EnableInstancingVariants: 0
  m_DoubleSidedGI: 0
  m_CustomRenderQueue: -1
  stringTagMap: {}
  disabledShaderPasses: []
  m_SavedProperties:
    serializedVersion: 3
    m_TexEnvs:
    - _BumpMap:
        m_Texture: {fileID: 0}
        m_Scale: {x: 1, y: 1}
        m_Offset: {x: 0, y: 0}
    - _MainTex:
        m_Texture: {fileID: 2800000, guid: 27da53b541156324888fd1a4fb7e3ebf, type: 3}
        m_Scale: {x: 1, y: 1}
        m_Offset: {x: 0, y: 0}
    - _Ramp:
        m_Texture: {fileID: 2800000, guid: abc83c21d57d4a74cabe12065fa1a8b2, type: 3}
        m_Scale: {x: 1, y: 1}
        m_Offset: {x: 0, y: 0}
    m_Floats:
    - _Cutoff: 0.5
    - _DstBlend: 10
    - _Offset1: 0
    - _Offset2: 0
    - _Outline: 0.3
    - _RampSmooth: 0.1
    - _RampThreshold: 0.5
    - _RimMax: 1
    - _RimMin: 0.5
    - _Shininess: 1.1237018
    - _SpecSmooth: 0
    - _SrcBlend: 5
    - _TexLod: 5
    - _ZSmooth: -0.5
    m_Colors:
    - _Color: {r: 1, g: 1, b: 1, a: 1}
    - _HColor: {r: 0.6, g: 0.6, b: 0.6, a: 1}
    - _OutlineColor: {r: 0.14901961, g: 0.14901961, b: 0.14901961, a: 1}
    - _RimColor: {r: 0.85294116, g: 0.72145325, b: 0.6020761, a: 0.6}
    - _RimDir: {r: 0, g: 0, b: 1, a: 0}
    - _SColor: {r: 0.2, g: 0.2, b: 0.2, a: 1}
    - _SpecColor: {r: 0.60294116, g: 0.60294116, b: 0.60294116, a: 1}
